<svg version="1.1" id="Layer_1" xmlns="http://www.w3.org/2000/svg" xmlns:xlink="http://www.w3.org/1999/xlink" x="0px" y="0px"
	 viewBox="0 0 767.3 242.1" style="enable-background:new 0 0 767.3 242.1;" xml:space="preserve">
<style type="text/css">
	.st0{fill-rule:evenodd;clip-rule:evenodd;}
</style>
	<path class="st0" d="M505.1,60.4c6.4,7.3,20.3,6.9,28.6,12.3c-11.2,2.9-25.3,2.9-35.5,6.8C500.7,73.2,502.8,66.7,505.1,60.4"/>
	<path class="st0" d="M425.9,85.6c-3.3,15.3-10.4,32.9-14.3,49.8c21.7,0.3,44.6-4.1,66.9-5.5c3-4,4.5-9.6,6.1-15
		c4.5,6.4,7.6,18.2,3.4,27.3c-33.9-0.5-58.2,27.3-91.4,27.3c-14.9,0-27.5-8.5-20.5-25.3C386.1,120.7,410.7,104.3,425.9,85.6"/>
	<path class="st0" d="M767.1,35.8c0.8,3.3-2.8,6.5-4.7,8.9c-16.1,20.2-33.9,44.1-55.3,59.4c1.5,8,0.7,18.7-2.1,24.6
		c5.6,7.2,11.6,13.9,15,23.2c-4.6,24.2-15.2,43-32.1,55.3c-16.5,12-38.9,16.7-64.2,22.5c-49,11.3-129.5,22.4-165.8-6.9
		c-39.3,23.1-118.8,26.1-155.6-1.3c-26.2,33.1-129.3,30.2-114-35.5c-19.1,14.5-47.4,34.5-74.4,45.7c-31.3,13-90.5,11.6-84.6-32.8
		c0.7-5.3,2.9-8.3,5.5-13c-9.2-16-15-27-20.5-40.9C9.1,131.7,1,116.5,0.1,97.9c-2-39.6,28.8-64.7,59.4-76.4
		c15.6-6,28.2-14.7,43.7-19.1c23.1-6.6,42.8,6.1,44.4,27.3c26.8-8,59.5-16.7,94.9-11.6c28.2-21.9,83.2-8.4,119.4,2
		c8.2,2.4,19.2,8.5,25.2,8.2c5.1-0.2,14.4-7.2,19.8-9.5c25.4-11.3,58.6-23.2,94.9-17.1c6.9,1.1,13.2,4.8,20.5,5.5
		c5,0.4,11-1.1,16.4-1.4C623.3,1.6,693.9,24.4,767.1,35.8 M529.7,33.1c-8.7,1-14.8,10.5-20.5,13.6c0.4,0,0.8-0.1,0.7-0.7
		c1-4.6,3-8.4,3.4-13.6c-45.4-16-89.6,7.4-122.1,25.3c-26,14.3-49.2,31-65.5,47.8c5.9-10.1,12.1-20,19.1-29.4
		c7.1-9.5,14.9-18.2,21.2-26.6c-13.6-3.6-27.2-7.3-41-10.2c-19.5-4.2-46.6-11-62.8-2c-4.7,2.6-8.5,9-13,9.5
		c-3.7,0.5-9.8-2.2-14.3-2.7c-16.7-1.8-32-0.3-47.1,2.7c-14.1,2.8-44,7.8-47.8,21.2c-2.4,8.5,3,16.8,2.1,25.3
		c-0.9,8.3-8.9,19.3-13,25.9c-5,8.1-10,15.3-18.4,19.1c-5.1-25.4,0.4-48,4.8-69.6c2.7-13.3,8.1-26.9,3.4-40.3
		c-13-1.8-24,8.5-36.9,13.6c-24.2,9.7-51.2,18.5-54.6,46.4c-1.9,15.7,4,25.7,8.2,36.9c9,24,20.2,44.2,33.4,62.8
		c-3.6,6.6-12.1,8.4-13,17.7c3.9,5.4,11.9,6.2,19.8,6.2c22.9,0,41.7-11.6,58.7-21.2c37-20.8,61.9-52.9,88-83.3
		c4.6-5.4,8.4-11.8,14.3-15c5.9,27-5.5,41.4-13.7,63.5c-3.1,8.5-13,35.1-8.2,47.7c5.3,13.9,50.2,14.5,62.1,5.5
		c6-4.5,8.4-14.8,11.6-21.1c4.1-8.2,7.7-15.3,10.9-22.5c0.2,29.9,22.4,38.7,46.4,45.1c51.1,13.5,102.5-10.6,130.3-27.3
		c-3.5,22.2,5.1,24.4,22.5,28c45,9.3,90.3-1.4,127-10.2c33.5-8.1,60.5-13.8,65.5-47.1c-5.4-4.6-18.8-4.1-28-2.7
		c-27,4-53.3,17.7-89.4,15c-6.6-0.5-20.8-2.8-21.8-6.8c-1.6-6.3,9.7-10.7,19.1-12.3c27.1-4.6,66.2,0,88-8.2
		c10.5-3.9,23.1-15.4,21.8-28c-0.8-8.5-12-13-22.5-13.6c-29.9-1.9-51.2,15.6-82.6,9.6c3.9-5,4.6-13.1,9.5-17.1
		c22.9-0.5,45.2,4.1,66.9,2.7c30.1-1.9,47.1-14.6,61.4-31.4c1.5-1.8,5.4-3.7,4.1-6.8C665.6,46.3,594.3,25.2,529.7,33.1"/>
</svg>
